Parte_C/simulation/qsim/Sumador_Restador.msim.vcd
$comment
	File created using the following command:
		vcd file Sumador_Restador.msim.vcd -direction
$end
$date
	Tue Dec 05 21:46:05 2023
$end
$version
	ModelSim Version 10.1d
$end
$timescale
	1ps
$end
$scope module Block1_vlg_vec_tst $end
$var reg 1 ! clock $end
$var reg 1 " D $end
$var reg 1 # D41 $end
$var reg 1 $ D42 $end
$var reg 1 % D43 $end
$var reg 1 & D44 $end
$var reg 1 ' D45 $end
$var reg 1 ( D46 $end
$var reg 1 ) D47 $end
$var reg 1 * D48 $end
$var wire 1 + Q $end
$var wire 1 , Q35 $end
$var wire 1 - Q36 $end
$var wire 1 . Q37 $end
$var wire 1 / Q38 $end
$var wire 1 0 Q39 $end
$var wire 1 1 Q40 $end
$var wire 1 2 sampler $end
$scope module i1 $end
$var wire 1 3 gnd $end
$var wire 1 4 vcc $end
$var wire 1 5 unknown $end
$var tri1 1 6 devclrn $end
$var tri1 1 7 devpor $end
$var tri1 1 8 devoe $end
$var wire 1 9 b2v_B3|Q~q $end
$var wire 1 : D47~input_o $end
$var wire 1 ; b2v_B3|Q~feeder_combout $end
$var wire 1 < Q~output_o $end
$var wire 1 = Q35~output_o $end
$var wire 1 > Q36~output_o $end
$var wire 1 ? Q37~output_o $end
$var wire 1 @ Q38~output_o $end
$var wire 1 A Q39~output_o $end
$var wire 1 B Q40~output_o $end
$var wire 1 C clock~input_o $end
$var wire 1 D D48~input_o $end
$var wire 1 E b2v_A3|Q~q $end
$var wire 1 F D~input_o $end
$var wire 1 G b2v_SOR|Q~feeder_combout $end
$var wire 1 H b2v_SOR|Q~q $end
$var wire 1 I D45~input_o $end
$var wire 1 J b2v_B2|Q~q $end
$var wire 1 K D46~input_o $end
$var wire 1 L b2v_A2|Q~q $end
$var wire 1 M D43~input_o $end
$var wire 1 N b2v_B1|Q~q $end
$var wire 1 O SYNTHESIZED_WIRE_28~combout $end
$var wire 1 P D44~input_o $end
$var wire 1 Q b2v_A1|Q~q $end
$var wire 1 R D41~input_o $end
$var wire 1 S b2v_B0|Q~q $end
$var wire 1 T b2v_inst4|carry_out~1_combout $end
$var wire 1 U b2v_inst3|carry_out~0_combout $end
$var wire 1 V b2v_inst2|carry_out~0_combout $end
$var wire 1 W b2v_inst1|suma~0_combout $end
$var wire 1 X b2v_inst31|Q~q $end
$var wire 1 Y b2v_inst2|suma~0_combout $end
$var wire 1 Z b2v_inst30|Q~q $end
$var wire 1 [ b2v_inst4|carry_out~0_combout $end
$var wire 1 \ b2v_inst3|suma~combout $end
$var wire 1 ] b2v_inst29|Q~q $end
$var wire 1 ^ D42~input_o $end
$var wire 1 _ b2v_A0|Q~q $end
$var wire 1 ` b2v_inst4|suma~0_combout $end
$var wire 1 a b2v_inst28|Q~q $end
$var wire 1 b SYNTHESIZED_WIRE_32~0_combout $end
$var wire 1 c b2v_inst32|Q~q $end
$var wire 1 d SYNTHESIZED_WIRE_33~combout $end
$var wire 1 e b2v_inst33|Q~q $end
$var wire 1 f SYNTHESIZED_WIRE_34~combout $end
$var wire 1 g b2v_inst34|Q~q $end
$upscope $end
$upscope $end
$enddefinitions $end
#0
$dumpvars
0!
0"
1#
1$
1%
0&
0'
0(
0)
1*
0+
0,
0-
0.
0/
00
01
x2
03
14
x5
16
17
18
09
0:
0;
0<
0=
0>
0?
0@
0A
0B
0C
1D
0E
0F
0G
0H
0I
0J
0K
0L
1M
0N
0O
0P
0Q
1R
0S
0T
0U
0V
0W
0X
0Y
0Z
0[
0\
0]
1^
0_
0`
0a
1b
0c
0d
0e
0f
0g
$end
#500
1!
1C
02
1_
1S
1N
1E
1c
1T
1O
1W
1@
1/
1U
1Y
#1000
0!
0C
12
#1500
1!
1C
02
1Z
1X
1=
1<
1,
1+
#2000
0!
0C
12
#2500
1!
1C
02
#3000
0!
0C
12
#3500
1!
1C
02
#4000
0!
0C
12
#4500
1!
1C
02
#5000
0!
0C
12
#5500
1!
1C
02
#6000
0!
0C
12
#6500
1!
1C
02
#7000
0!
0C
12
#7500
1!
1C
02
#8000
0!
0C
12
#8500
1!
1C
02
#9000
0!
0C
12
#9500
1!
1C
02
#10000
0!
0C
12
#10500
1!
1C
02
#11000
0!
0C
12
#11500
1!
1C
02
#12000
0!
0C
12
#12500
1!
1C
02
#13000
0!
0C
12
#13500
1!
1C
02
#14000
0!
0C
12
#14500
1!
1C
02
#15000
0!
0C
12
#15500
1!
1C
02
#16000
0!
0C
12
#16500
1!
1C
02
#17000
0!
0C
12
#17500
1!
1C
02
#18000
0!
0C
12
#18500
1!
1C
02
#19000
0!
0C
12
#19500
1!
1C
02
#20000
0!
0C
12
#20500
1!
1C
02
#21000
0!
0C
12
#21500
1!
1C
02
#22000
0!
0C
12
#22500
1!
1C
02
#23000
0!
0C
12
#23500
1!
1C
02
#24000
0!
0C
12
#24500
1!
1C
02
#25000
0!
0C
12
#25500
1!
1C
02
#26000
0!
0C
12
#26500
1!
1C
02
#27000
0!
0C
12
#27500
1!
1C
02
#28000
0!
0C
12
#28500
1!
1C
02
#29000
0!
0C
12
#29500
1!
1C
02
#30000
0!
0C
12
#30500
1!
1C
02
#31000
0!
0C
12
#31500
1!
1C
02
#32000
0!
0C
12
#32500
1!
1C
02
#33000
0!
0C
12
#33500
1!
1C
02
#34000
0!
0C
12
#34500
1!
1C
02
#35000
0!
0C
12
#35500
1!
1C
02
#36000
0!
0C
12
#36500
1!
1C
02
#37000
0!
0C
12
#37500
1!
1C
02
#38000
0!
0C
12
#38500
1!
1C
02
#39000
0!
0C
12
#39500
1!
1C
02
#40000
0!
0C
12
#40500
1!
1C
02
#41000
0!
0C
12
#41500
1!
1C
02
#42000
0!
0C
12
#42500
1!
1C
02
#43000
0!
0C
12
#43500
1!
1C
02
#44000
0!
0C
12
#44500
1!
1C
02
#45000
0!
0C
12
#45500
1!
1C
02
#46000
0!
0C
12
#46500
1!
1C
02
#47000
0!
0C
12
#47500
1!
1C
02
#48000
0!
0C
12
#48500
1!
1C
02
#49000
0!
0C
12
#49500
1!
1C
02
#50000
0!
0C
12
#50500
1!
1C
02
#51000
0!
0C
12
#51500
1!
1C
02
#52000
0!
0C
12
#52500
1!
1C
02
#53000
0!
0C
12
#53500
1!
1C
02
#54000
0!
0C
12
#54500
1!
1C
02
#55000
0!
0C
12
#55500
1!
1C
02
#56000
0!
0C
12
#56500
1!
1C
02
#57000
0!
0C
12
#57500
1!
1C
02
#58000
0!
0C
12
#58500
1!
1C
02
#59000
0!
0C
12
#59500
1!
1C
02
#60000
0!
0C
12
#60500
1!
1C
02
#61000
0!
0C
12
#61500
1!
1C
02
#62000
0!
0C
12
#62500
1!
1C
02
#63000
0!
0C
12
#63500
1!
1C
02
#64000
0!
0C
12
#64500
1!
1C
02
#65000
0!
0C
12
#65500
1!
1C
02
#66000
0!
0C
12
#66500
1!
1C
02
#67000
0!
0C
12
#67500
1!
1C
02
#68000
0!
0C
12
#68500
1!
1C
02
#69000
0!
0C
12
#69500
1!
1C
02
#70000
0!
0C
12
#70500
1!
1C
02
#71000
0!
0C
12
#71500
1!
1C
02
#72000
0!
0C
12
#72500
1!
1C
02
#73000
0!
0C
12
#73500
1!
1C
02
#74000
0!
0C
12
#74500
1!
1C
02
#75000
0!
0C
12
#75500
1!
1C
02
#76000
0!
0C
12
#76500
1!
1C
02
#77000
0!
0C
12
#77500
1!
1C
02
#78000
0!
0C
12
#78500
1!
1C
02
#79000
0!
0C
12
#79500
1!
1C
02
#80000
0!
0C
12
#80500
1!
1C
02
#81000
0!
0C
12
#81500
1!
1C
02
#82000
0!
0C
12
#82500
1!
1C
02
#83000
0!
0C
12
#83500
1!
1C
02
#84000
0!
0C
12
#84500
1!
1C
02
#85000
0!
0C
12
#85500
1!
1C
02
#86000
0!
0C
12
#86500
1!
1C
02
#87000
0!
0C
12
#87500
1!
1C
02
#88000
0!
0C
12
#88500
1!
1C
02
#89000
0!
0C
12
#89500
1!
1C
02
#90000
0!
0C
12
#90500
1!
1C
02
#91000
0!
0C
12
#91500
1!
1C
02
#92000
0!
0C
12
#92500
1!
1C
02
#93000
0!
0C
12
#93500
1!
1C
02
#94000
0!
0C
12
#94500
1!
1C
02
#95000
0!
0C
12
#95500
1!
1C
02
#96000
0!
0C
12
#96500
1!
1C
02
#97000
0!
0C
12
#97500
1!
1C
02
#98000
0!
0C
12
#98500
1!
1C
02
#99000
0!
0C
12
#99500
1!
1C
02
#100000
0!
0C
12
#100500
1!
1C
02
#101000
0!
0C
12
#101500
1!
1C
02
#102000
0!
0C
12
#102500
1!
1C
02
#103000
0!
0C
12
#103500
1!
1C
02
#104000
0!
0C
12
#104500
1!
1C
02
#105000
0!
0C
12
#105500
1!
1C
02
#106000
0!
0C
12
#106500
1!
1C
02
#107000
0!
0C
12
#107500
1!
1C
02
#108000
0!
0C
12
#108500
1!
1C
02
#109000
0!
0C
12
#109500
1!
1C
02
#110000
0!
0C
12
#110500
1!
1C
02
#111000
0!
0C
12
#111500
1!
1C
02
#112000
0!
0C
12
#112500
1!
1C
02
#113000
0!
0C
12
#113500
1!
1C
02
#114000
0!
0C
12
#114500
1!
1C
02
#115000
0!
0C
12
#115500
1!
1C
02
#116000
0!
0C
12
#116500
1!
1C
02
#117000
0!
0C
12
#117500
1!
1C
02
#118000
0!
0C
12
#118500
1!
1C
02
#119000
0!
0C
12
#119500
1!
1C
02
#120000
0!
0C
12
#120500
1!
1C
02
#121000
0!
0C
12
#121500
1!
1C
02
#122000
0!
0C
12
#122500
1!
1C
02
#123000
0!
0C
12
#123500
1!
1C
02
#124000
0!
0C
12
#124500
1!
1C
02
#125000
0!
0C
12
#125500
1!
1C
02
#126000
0!
0C
12
#126500
1!
1C
02
#127000
0!
0C
12
#127500
1!
1C
02
#128000
0!
0C
12
#128500
1!
1C
02
#129000
0!
0C
12
#129500
1!
1C
02
#130000
0!
0C
12
#130500
1!
1C
02
#131000
0!
0C
12
#131500
1!
1C
02
#132000
0!
0C
12
#132500
1!
1C
02
#133000
0!
0C
12
#133500
1!
1C
02
#134000
0!
0C
12
#134500
1!
1C
02
#135000
0!
0C
12
#135500
1!
1C
02
#136000
0!
0C
12
#136500
1!
1C
02
#137000
0!
0C
12
#137500
1!
1C
02
#138000
0!
0C
12
#138500
1!
1C
02
#139000
0!
0C
12
#139500
1!
1C
02
#140000
0!
0C
12
#140500
1!
1C
02
#141000
0!
0C
12
#141500
1!
1C
02
#142000
0!
0C
12
#142500
1!
1C
02
#143000
0!
0C
12
#143500
1!
1C
02
#144000
0!
0C
12
#144500
1!
1C
02
#145000
0!
0C
12
#145500
1!
1C
02
#146000
0!
0C
12
#146500
1!
1C
02
#147000
0!
0C
12
#147500
1!
1C
02
#148000
0!
0C
12
#148500
1!
1C
02
#149000
0!
0C
12
#149500
1!
1C
02
#150000
0!
0C
12
#150500
1!
1C
02
#151000
0!
0C
12
#151500
1!
1C
02
#152000
0!
0C
12
#152500
1!
1C
02
#153000
0!
0C
12
#153500
1!
1C
02
#154000
0!
0C
12
#154500
1!
1C
02
#155000
0!
0C
12
#155500
1!
1C
02
#156000
0!
0C
12
#156500
1!
1C
02
#157000
0!
0C
12
#157500
1!
1C
02
#158000
0!
0C
12
#158500
1!
1C
02
#159000
0!
0C
12
#159500
1!
1C
02
#160000
0!
0C
12
#160500
1!
1C
02
#161000
0!
0C
12
#161500
1!
1C
02
#162000
0!
0C
12
#162500
1!
1C
02
#163000
0!
0C
12
#163500
1!
1C
02
#164000
0!
0C
12
#164500
1!
1C
02
#165000
0!
0C
12
#165500
1!
1C
02
#166000
0!
0C
12
#166500
1!
1C
02
#167000
0!
0C
12
#167500
1!
1C
02
#168000
0!
0C
12
#168500
1!
1C
02
#169000
0!
0C
12
#169500
1!
1C
02
#170000
0!
0C
12
#170500
1!
1C
02
#171000
0!
0C
12
#171500
1!
1C
02
#172000
0!
0C
12
#172500
1!
1C
02
#173000
0!
0C
12
#173500
1!
1C
02
#174000
0!
0C
12
#174500
1!
1C
02
#175000
0!
0C
12
#175500
1!
1C
02
#176000
0!
0C
12
#176500
1!
1C
02
#177000
0!
0C
12
#177500
1!
1C
02
#178000
0!
0C
12
#178500
1!
1C
02
#179000
0!
0C
12
#179500
1!
1C
02
#180000
0!
0C
12
#180500
1!
1C
02
#181000
0!
0C
12
#181500
1!
1C
02
#182000
0!
0C
12
#182500
1!
1C
02
#183000
0!
0C
12
#183500
1!
1C
02
#184000
0!
0C
12
#184500
1!
1C
02
#185000
0!
0C
12
#185500
1!
1C
02
#186000
0!
0C
12
#186500
1!
1C
02
#187000
0!
0C
12
#187500
1!
1C
02
#188000
0!
0C
12
#188500
1!
1C
02
#189000
0!
0C
12
#189500
1!
1C
02
#190000
0!
0C
12
#190500
1!
1C
02
#191000
0!
0C
12
#191500
1!
1C
02
#192000
0!
0C
12
#192500
1!
1C
02
#193000
0!
0C
12
#193500
1!
1C
02
#194000
0!
0C
12
#194500
1!
1C
02
#195000
0!
0C
12
#195500
1!
1C
02
#196000
0!
0C
12
#196500
1!
1C
02
#197000
0!
0C
12
#197500
1!
1C
02
#198000
0!
0C
12
#198500
1!
1C
02
#199000
0!
0C
12
#199500
1!
1C
02
#200000
0!
0C
12
#200500
1!
1C
02
#201000
0!
0C
12
#201500
1!
1C
02
#202000
0!
0C
12
#202500
1!
1C
02
#203000
0!
0C
12
#203500
1!
1C
02
#204000
0!
0C
12
#204500
1!
1C
02
#205000
0!
0C
12
#205500
1!
1C
02
#206000
0!
0C
12
#206500
1!
1C
02
#207000
0!
0C
12
#207500
1!
1C
02
#208000
0!
0C
12
#208500
1!
1C
02
#209000
0!
0C
12
#209500
1!
1C
02
#210000
0!
0C
12
#210500
1!
1C
02
#211000
0!
0C
12
#211500
1!
1C
02
#212000
0!
0C
12
#212500
1!
1C
02
#213000
0!
0C
12
#213500
1!
1C
02
#214000
0!
0C
12
#214500
1!
1C
02
#215000
0!
0C
12
#215500
1!
1C
02
#216000
0!
0C
12
#216500
1!
1C
02
#217000
0!
0C
12
#217500
1!
1C
02
#218000
0!
0C
12
#218500
1!
1C
02
#219000
0!
0C
12
#219500
1!
1C
02
#220000
0!
0C
12
#220500
1!
1C
02
#221000
0!
0C
12
#221500
1!
1C
02
#222000
0!
0C
12
#222500
1!
1C
02
#223000
0!
0C
12
#223500
1!
1C
02
#224000
0!
0C
12
#224500
1!
1C
02
#225000
0!
0C
12
#225500
1!
1C
02
#226000
0!
0C
12
#226500
1!
1C
02
#227000
0!
0C
12
#227500
1!
1C
02
#228000
0!
0C
12
#228500
1!
1C
02
#229000
0!
0C
12
#229500
1!
1C
02
#230000
0!
0C
12
#230500
1!
1C
02
#231000
0!
0C
12
#231500
1!
1C
02
#232000
0!
0C
12
#232500
1!
1C
02
#233000
0!
0C
12
#233500
1!
1C
02
#234000
0!
0C
12
#234500
1!
1C
02
#235000
0!
0C
12
#235500
1!
1C
02
#236000
0!
0C
12
#236500
1!
1C
02
#237000
0!
0C
12
#237500
1!
1C
02
#238000
0!
0C
12
#238500
1!
1C
02
#239000
0!
0C
12
#239500
1!
1C
02
#240000
0!
0C
12
#240500
1!
1C
02
#241000
0!
0C
12
#241500
1!
1C
02
#242000
0!
0C
12
#242500
1!
1C
02
#243000
0!
0C
12
#243500
1!
1C
02
#244000
0!
0C
12
#244500
1!
1C
02
#245000
0!
0C
12
#245500
1!
1C
02
#246000
0!
0C
12
#246500
1!
1C
02
#247000
0!
0C
12
#247500
1!
1C
02
#248000
0!
0C
12
#248500
1!
1C
02
#249000
0!
0C
12
#249500
1!
1C
02
#250000
0!
0C
12
#250500
1!
1C
02
#251000
0!
0C
12
#251500
1!
1C
02
#252000
0!
0C
12
#252500
1!
1C
02
#253000
0!
0C
12
#253500
1!
1C
02
#254000
0!
0C
12
#254500
1!
1C
02
#255000
0!
0C
12
#255500
1!
1C
02
#256000
0!
0C
12
#256500
1!
1C
02
#257000
0!
0C
12
#257500
1!
1C
02
#258000
0!
0C
12
#258500
1!
1C
02
#259000
0!
0C
12
#259500
1!
1C
02
#260000
0!
0C
12
#260500
1!
1C
02
#261000
0!
0C
12
#261500
1!
1C
02
#262000
0!
0C
12
#262500
1!
1C
02
#263000
0!
0C
12
#263500
1!
1C
02
#264000
0!
0C
12
#264500
1!
1C
02
#265000
0!
0C
12
#265500
1!
1C
02
#266000
0!
0C
12
#266500
1!
1C
02
#267000
0!
0C
12
#267500
1!
1C
02
#268000
0!
0C
12
#268500
1!
1C
02
#269000
0!
0C
12
#269500
1!
1C
02
#270000
0!
0C
12
#270500
1!
1C
02
#271000
0!
0C
12
#271500
1!
1C
02
#272000
0!
0C
12
#272500
1!
1C
02
#273000
0!
0C
12
#273500
1!
1C
02
#274000
0!
0C
12
#274500
1!
1C
02
#275000
0!
0C
12
#275500
1!
1C
02
#276000
0!
0C
12
#276500
1!
1C
02
#277000
0!
0C
12
#277500
1!
1C
02
#278000
0!
0C
12
#278500
1!
1C
02
#279000
0!
0C
12
#279500
1!
1C
02
#280000
0!
0C
12
#280500
1!
1C
02
#281000
0!
0C
12
#281500
1!
1C
02
#282000
0!
0C
12
#282500
1!
1C
02
#283000
0!
0C
12
#283500
1!
1C
02
#284000
0!
0C
12
#284500
1!
1C
02
#285000
0!
0C
12
#285500
1!
1C
02
#286000
0!
0C
12
#286500
1!
1C
02
#287000
0!
0C
12
#287500
1!
1C
02
#288000
0!
0C
12
#288500
1!
1C
02
#289000
0!
0C
12
#289500
1!
1C
02
#290000
0!
0C
12
#290500
1!
1C
02
#291000
0!
0C
12
#291500
1!
1C
02
#292000
0!
0C
12
#292500
1!
1C
02
#293000
0!
0C
12
#293500
1!
1C
02
#294000
0!
0C
12
#294500
1!
1C
02
#295000
0!
0C
12
#295500
1!
1C
02
#296000
0!
0C
12
#296500
1!
1C
02
#297000
0!
0C
12
#297500
1!
1C
02
#298000
0!
0C
12
#298500
1!
1C
02
#299000
0!
0C
12
#299500
1!
1C
02
#300000
0!
0C
12
#300500
1!
1C
02
#301000
0!
0C
12
#301500
1!
1C
02
#302000
0!
0C
12
#302500
1!
1C
02
#303000
0!
0C
12
#303500
1!
1C
02
#304000
0!
0C
12
#304500
1!
1C
02
#305000
0!
0C
12
#305500
1!
1C
02
#306000
0!
0C
12
#306500
1!
1C
02
#307000
0!
0C
12
#307500
1!
1C
02
#308000
0!
0C
12
#308500
1!
1C
02
#309000
0!
0C
12
#309500
1!
1C
02
#310000
0!
0C
12
#310500
1!
1C
02
#311000
0!
0C
12
#311500
1!
1C
02
#312000
0!
0C
12
#312500
1!
1C
02
#313000
0!
0C
12
#313500
1!
1C
02
#314000
0!
0C
12
#314500
1!
1C
02
#315000
0!
0C
12
#315500
1!
1C
02
#316000
0!
0C
12
#316500
1!
1C
02
#317000
0!
0C
12
#317500
1!
1C
02
#318000
0!
0C
12
#318500
1!
1C
02
#319000
0!
0C
12
#319500
1!
1C
02
#320000
0!
0C
12
#320500
1!
1C
02
#321000
0!
0C
12
#321500
1!
1C
02
#322000
0!
0C
12
#322500
1!
1C
02
#323000
0!
0C
12
#323500
1!
1C
02
#324000
0!
0C
12
#324500
1!
1C
02
#325000
0!
0C
12
#325500
1!
1C
02
#326000
0!
0C
12
#326500
1!
1C
02
#327000
0!
0C
12
#327500
1!
1C
02
#328000
0!
0C
12
#328500
1!
1C
02
#329000
0!
0C
12
#329500
1!
1C
02
#330000
0!
0C
12
#330500
1!
1C
02
#331000
0!
0C
12
#331500
1!
1C
02
#332000
0!
0C
12
#332500
1!
1C
02
#333000
0!
0C
12
#333500
1!
1C
02
#334000
0!
0C
12
#334500
1!
1C
02
#335000
0!
0C
12
#335500
1!
1C
02
#336000
0!
0C
12
#336500
1!
1C
02
#337000
0!
0C
12
#337500
1!
1C
02
#338000
0!
0C
12
#338500
1!
1C
02
#339000
0!
0C
12
#339500
1!
1C
02
#340000
0!
0C
12
#340500
1!
1C
02
#341000
0!
0C
12
#341500
1!
1C
02
#342000
0!
0C
12
#342500
1!
1C
02
#343000
0!
0C
12
#343500
1!
1C
02
#344000
0!
0C
12
#344500
1!
1C
02
#345000
0!
0C
12
#345500
1!
1C
02
#346000
0!
0C
12
#346500
1!
1C
02
#347000
0!
0C
12
#347500
1!
1C
02
#348000
0!
0C
12
#348500
1!
1C
02
#349000
0!
0C
12
#349500
1!
1C
02
#350000
0!
0C
12
#350500
1!
1C
02
#351000
0!
0C
12
#351500
1!
1C
02
#352000
0!
0C
12
#352500
1!
1C
02
#353000
0!
0C
12
#353500
1!
1C
02
#354000
0!
0C
12
#354500
1!
1C
02
#355000
0!
0C
12
#355500
1!
1C
02
#356000
0!
0C
12
#356500
1!
1C
02
#357000
0!
0C
12
#357500
1!
1C
02
#358000
0!
0C
12
#358500
1!
1C
02
#359000
0!
0C
12
#359500
1!
1C
02
#360000
0!
0C
12
#360500
1!
1C
02
#361000
0!
0C
12
#361500
1!
1C
02
#362000
0!
0C
12
#362500
1!
1C
02
#363000
0!
0C
12
#363500
1!
1C
02
#364000
0!
0C
12
#364500
1!
1C
02
#365000
0!
0C
12
#365500
1!
1C
02
#366000
0!
0C
12
#366500
1!
1C
02
#367000
0!
0C
12
#367500
1!
1C
02
#368000
0!
0C
12
#368500
1!
1C
02
#369000
0!
0C
12
#369500
1!
1C
02
#370000
0!
0C
12
#370500
1!
1C
02
#371000
0!
0C
12
#371500
1!
1C
02
#372000
0!
0C
12
#372500
1!
1C
02
#373000
0!
0C
12
#373500
1!
1C
02
#374000
0!
0C
12
#374500
1!
1C
02
#375000
0!
0C
12
#375500
1!
1C
02
#376000
0!
0C
12
#376500
1!
1C
02
#377000
0!
0C
12
#377500
1!
1C
02
#378000
0!
0C
12
#378500
1!
1C
02
#379000
0!
0C
12
#379500
1!
1C
02
#380000
0!
0C
12
#380500
1!
1C
02
#381000
0!
0C
12
#381500
1!
1C
02
#382000
0!
0C
12
#382500
1!
1C
02
#383000
0!
0C
12
#383500
1!
1C
02
#384000
0!
0C
12
#384500
1!
1C
02
#385000
0!
0C
12
#385500
1!
1C
02
#386000
0!
0C
12
#386500
1!
1C
02
#387000
0!
0C
12
#387500
1!
1C
02
#388000
0!
0C
12
#388500
1!
1C
02
#389000
0!
0C
12
#389500
1!
1C
02
#390000
0!
0C
12
#390500
1!
1C
02
#391000
0!
0C
12
#391500
1!
1C
02
#392000
0!
0C
12
#392500
1!
1C
02
#393000
0!
0C
12
#393500
1!
1C
02
#394000
0!
0C
12
#394500
1!
1C
02
#395000
0!
0C
12
#395500
1!
1C
02
#396000
0!
0C
12
#396500
1!
1C
02
#397000
0!
0C
12
#397500
1!
1C
02
#398000
0!
0C
12
#398500
1!
1C
02
#399000
0!
0C
12
#399500
1!
1C
02
#400000
0!
0C
12
#400500
1!
1C
02
#401000
0!
0C
12
#401500
1!
1C
02
#402000
0!
0C
12
#402500
1!
1C
02
#403000
0!
0C
12
#403500
1!
1C
02
#404000
0!
0C
12
#404500
1!
1C
02
#405000
0!
0C
12
#405500
1!
1C
02
#406000
0!
0C
12
#406500
1!
1C
02
#407000
0!
0C
12
#407500
1!
1C
02
#408000
0!
0C
12
#408500
1!
1C
02
#409000
0!
0C
12
#409500
1!
1C
02
#410000
0!
0C
12
#410500
1!
1C
02
#411000
0!
0C
12
#411500
1!
1C
02
#412000
0!
0C
12
#412500
1!
1C
02
#413000
0!
0C
12
#413500
1!
1C
02
#414000
0!
0C
12
#414500
1!
1C
02
#415000
0!
0C
12
#415500
1!
1C
02
#416000
0!
0C
12
#416500
1!
1C
02
#417000
0!
0C
12
#417500
1!
1C
02
#418000
0!
0C
12
#418500
1!
1C
02
#419000
0!
0C
12
#419500
1!
1C
02
#420000
0!
0C
12
#420500
1!
1C
02
#421000
0!
0C
12
#421500
1!
1C
02
#422000
0!
0C
12
#422500
1!
1C
02
#423000
0!
0C
12
#423500
1!
1C
02
#424000
0!
0C
12
#424500
1!
1C
02
#425000
0!
0C
12
#425500
1!
1C
02
#426000
0!
0C
12
#426500
1!
1C
02
#427000
0!
0C
12
#427500
1!
1C
02
#428000
0!
0C
12
#428500
1!
1C
02
#429000
0!
0C
12
#429500
1!
1C
02
#430000
0!
0C
12
#430500
1!
1C
02
#431000
0!
0C
12
#431500
1!
1C
02
#432000
0!
0C
12
#432500
1!
1C
02
#433000
0!
0C
12
#433500
1!
1C
02
#434000
0!
0C
12
#434500
1!
1C
02
#435000
0!
0C
12
#435500
1!
1C
02
#436000
0!
0C
12
#436500
1!
1C
02
#437000
0!
0C
12
#437500
1!
1C
02
#438000
0!
0C
12
#438500
1!
1C
02
#439000
0!
0C
12
#439500
1!
1C
02
#440000
0!
0C
12
#440500
1!
1C
02
#441000
0!
0C
12
#441500
1!
1C
02
#442000
0!
0C
12
#442500
1!
1C
02
#443000
0!
0C
12
#443500
1!
1C
02
#444000
0!
0C
12
#444500
1!
1C
02
#445000
0!
0C
12
#445500
1!
1C
02
#446000
0!
0C
12
#446500
1!
1C
02
#447000
0!
0C
12
#447500
1!
1C
02
#448000
0!
0C
12
#448500
1!
1C
02
#449000
0!
0C
12
#449500
1!
1C
02
#450000
0!
0C
12
#450500
1!
1C
02
#451000
0!
0C
12
#451500
1!
1C
02
#452000
0!
0C
12
#452500
1!
1C
02
#453000
0!
0C
12
#453500
1!
1C
02
#454000
0!
0C
12
#454500
1!
1C
02
#455000
0!
0C
12
#455500
1!
1C
02
#456000
0!
0C
12
#456500
1!
1C
02
#457000
0!
0C
12
#457500
1!
1C
02
#458000
0!
0C
12
#458500
1!
1C
02
#459000
0!
0C
12
#459500
1!
1C
02
#460000
0!
0C
12
#460500
1!
1C
02
#461000
0!
0C
12
#461500
1!
1C
02
#462000
0!
0C
12
#462500
1!
1C
02
#463000
0!
0C
12
#463500
1!
1C
02
#464000
0!
0C
12
#464500
1!
1C
02
#465000
0!
0C
12
#465500
1!
1C
02
#466000
0!
0C
12
#466500
1!
1C
02
#467000
0!
0C
12
#467500
1!
1C
02
#468000
0!
0C
12
#468500
1!
1C
02
#469000
0!
0C
12
#469500
1!
1C
02
#470000
0!
0C
12
#470500
1!
1C
02
#471000
0!
0C
12
#471500
1!
1C
02
#472000
0!
0C
12
#472500
1!
1C
02
#473000
0!
0C
12
#473500
1!
1C
02
#474000
0!
0C
12
#474500
1!
1C
02
#475000
0!
0C
12
#475500
1!
1C
02
#476000
0!
0C
12
#476500
1!
1C
02
#477000
0!
0C
12
#477500
1!
1C
02
#478000
0!
0C
12
#478500
1!
1C
02
#479000
0!
0C
12
#479500
1!
1C
02
#480000
1"
0!
1F
0C
12
1G
#480500
1!
1C
02
1H
1[
0Y
0W
1V
0T
0O
1\
0U
1W
1Y
0V
0W
#481000
0!
0C
12
#481500
1!
1C
02
1]
0X
1>
0<
1-
0+
#482000
0!
0C
12
#482500
1!
1C
02
#483000
0!
0C
12
#483500
1!
1C
02
#484000
0!
0C
12
#484500
1!
1C
02
#485000
0!
0C
12
#485500
1!
1C
02
#486000
0!
0C
12
#486500
1!
1C
02
#487000
0!
0C
12
#487500
1!
1C
02
#488000
0!
0C
12
#488500
1!
1C
02
#489000
0!
0C
12
#489500
1!
1C
02
#490000
0!
0C
12
#490500
1!
1C
02
#491000
0!
0C
12
#491500
1!
1C
02
#492000
0!
0C
12
#492500
1!
1C
02
#493000
0!
0C
12
#493500
1!
1C
02
#494000
0!
0C
12
#494500
1!
1C
02
#495000
0!
0C
12
#495500
1!
1C
02
#496000
0!
0C
12
#496500
1!
1C
02
#497000
0!
0C
12
#497500
1!
1C
02
#498000
0!
0C
12
#498500
1!
1C
02
#499000
0!
0C
12
#499500
1!
1C
02
#500000
0!
0C
12
#500500
1!
1C
02
#501000
0!
0C
12
#501500
1!
1C
02
#502000
0!
0C
12
#502500
1!
1C
02
#503000
0!
0C
12
#503500
1!
1C
02
#504000
0!
0C
12
#504500
1!
1C
02
#505000
0!
0C
12
#505500
1!
1C
02
#506000
0!
0C
12
#506500
1!
1C
02
#507000
0!
0C
12
#507500
1!
1C
02
#508000
0!
0C
12
#508500
1!
1C
02
#509000
0!
0C
12
#509500
1!
1C
02
#510000
0!
0C
12
#510500
1!
1C
02
#511000
0!
0C
12
#511500
1!
1C
02
#512000
0!
0C
12
#512500
1!
1C
02
#513000
0!
0C
12
#513500
1!
1C
02
#514000
0!
0C
12
#514500
1!
1C
02
#515000
0!
0C
12
#515500
1!
1C
02
#516000
0!
0C
12
#516500
1!
1C
02
#517000
0!
0C
12
#517500
1!
1C
02
#518000
0!
0C
12
#518500
1!
1C
02
#519000
0!
0C
12
#519500
1!
1C
02
#520000
0!
0C
12
#520500
1!
1C
02
#521000
0!
0C
12
#521500
1!
1C
02
#522000
0!
0C
12
#522500
1!
1C
02
#523000
0!
0C
12
#523500
1!
1C
02
#524000
0!
0C
12
#524500
1!
1C
02
#525000
0!
0C
12
#525500
1!
1C
02
#526000
0!
0C
12
#526500
1!
1C
02
#527000
0!
0C
12
#527500
1!
1C
02
#528000
0!
0C
12
#528500
1!
1C
02
#529000
0!
0C
12
#529500
1!
1C
02
#530000
0!
0C
12
#530500
1!
1C
02
#531000
0!
0C
12
#531500
1!
1C
02
#532000
0!
0C
12
#532500
1!
1C
02
#533000
0!
0C
12
#533500
1!
1C
02
#534000
0!
0C
12
#534500
1!
1C
02
#535000
0!
0C
12
#535500
1!
1C
02
#536000
0!
0C
12
#536500
1!
1C
02
#537000
0!
0C
12
#537500
1!
1C
02
#538000
0!
0C
12
#538500
1!
1C
02
#539000
0!
0C
12
#539500
1!
1C
02
#540000
0!
0C
12
#540500
1!
1C
02
#541000
0!
0C
12
#541500
1!
1C
02
#542000
0!
0C
12
#542500
1!
1C
02
#543000
0!
0C
12
#543500
1!
1C
02
#544000
0!
0C
12
