Parte_A/simulation/qsim/EjercicioLED.msim.vcd
$comment
	File created using the following command:
		vcd file EjercicioLED.msim.vcd -direction
$end
$date
	Tue Dec 05 21:44:56 2023
$end
$version
	ModelSim Version 10.1d
$end
$timescale
	1ps
$end
$scope module Block1_vlg_vec_tst $end
$var reg 1 ! SW1 $end
$var reg 1 " SW2 $end
$var wire 1 # LED $end
$var wire 1 $ sampler $end
$scope module i1 $end
$var wire 1 % gnd $end
$var wire 1 & vcc $end
$var wire 1 ' unknown $end
$var tri1 1 ( devclrn $end
$var tri1 1 ) devpor $end
$var tri1 1 * devoe $end
$var wire 1 + LED~output_o $end
$var wire 1 , SW1~input_o $end
$var wire 1 - SW2~input_o $end
$var wire 1 . inst~combout $end
$upscope $end
$upscope $end
$enddefinitions $end
#0
$dumpvars
0!
0"
1#
x$
0%
1&
x'
1(
1)
1*
1+
0,
0-
0.
$end
#100000
1!
1,
0$
#150000
1"
1-
1$
1.
0+
0#
#200000
0!
0,
0$
0.
1+
1#
#300000
0"
1!
0-
1,
1$
#400000
0!
0,
0$
#450000
1"
1-
1$
#500000
1!
1,
0$
1.
0+
0#
#600000
0"
0!
0-
0,
1$
0.
1+
1#
#700000
1!
1,
0$
#750000
1"
1-
1$
1.
0+
0#
#800000
0!
0,
0$
0.
1+
1#
#900000
0"
1!
0-
1,
1$
